{
    "Arithmetique": "26c21a45a69efe4cf316ab5c8ab5bf08",
    "ArrondirNombreDecimal": "fcfeb281b9cc37b8aafe88945c8aeb06",
    "BilanDistanceMilieu": "a34bad4c6fd11ec8369e292d8379c84e",
    "BilanTrinomeSansDiscriminant": "341ef50ee5d3c7d634335e26a093d23d",
    "CalculMental": "4628ad69d18a4b388448d61d74516d5a",
    "CalculerAppliquerExprimerProportion": "dda3d9364ee931877669b80c30786af5",
    "CalculerAppliquerTauxDEvolution": "bb6ee905cd9a4f36a8098aa2572de579",
    "ClasserNombres": "f2cbad2306c43babd4f54b4f0911c872",
    "ConstruireZigZag": "1a17ad49eabfb8528562aff904e2b898",
    "CoupleInequationsPremierDegre": "139e3acfcc479974430db57f2da91f27",
    "Decomposition": "7236a3779b60b58190a266ad425c9fa6",
    "Divisible": "38e02e1354680c246088b9d211b84b97",
    "Droites": "77b3475ba8ed89876d9ccab1fa97908c",
    "EcrireNombreLettre": "f661e5d1a869e2f6b022cd0447e30cf9",
    "EcritureFractionnaire": "22bebcd3291b5c7db154009610bd1cf5",
    "EtatStableSysteme2": "68c9319e9ffcd4ec96ff68cf6abfadab",
    "ExploiterEquationDeCourbe": "ee4062caeba044d15cbe74473fa31df0",
    "Fd1Tangentes": "b034f10c086f8c1d054d581a470b21bc",
    "FractionPartage": "021e2eaae5092454ee74291e7a039998",
    "InequationPremierDegre": "a0cefc9cb2b4e9dec0ab2a16a882f8fe",
    "InterpolationMatrices": "630a53c1531f84c7c7a17d5e59136c5d",
    "LimitesSuites": "dc987a8e169ca167666e7a979e1b3f70",
    "MesureAngles": "48d6a9aee80f1d555021c625d4a67cff",
    "Operations": "235a1f2195d54aab4a1dc2dfba0e59c0",
    "Perpendiculaires": "a0a971d2beb31c9035d2be255a1e8a74",
    "PlaceVirgule": "c36ea594096452b933d08b7467c42427",
    "PoserDesOperations": "4a485c34e36a2cdc1379cfa185cc5e00",
    "ProduitPuissanceDix": "c7d26f11aa0280961c967397955d7784",
    "ProportionDUneProportion": "c30d0d4c12aabc5ed1a4a3f7a9df7d0d",
    "Proprietes": "a500b4e8043f66c3dd22a4d70ff86663",
    "QuestionsAbscisses": "3675e4d56a845850700a6a070d68cea3",
    "Sd1FormeCanonique": "c2ac2088a45d43cd05db5c42cb05104b",
    "Sd2aRacines": "e3e7b508ed36c23a3b52c3917d91075a",
    "SymetrieQuadrillage": "bfcd3e8bbc433e2216fb4e26b98ac02b",
    "TermesDUneSuite": "0ad36a1178e3a62548a608d3db95535b",
    "Vf1SensEtTableau": "2f4d46fb617aad9717c159b8f1509c2d",
    "Vf2ExtremaGraphiques": "78042fb89d866944a43e904e315329ab",
    "Vf3VariationVersCourbe": "2d4f8f2cd1c854b5921e481d581f4038",
    "Vf4ComparerImages": "1ab47c0bd43dbe953c067960c56230df",
    "Vf5Extrema_Tableau": "88c82fcd45147683b905277926485322",
    "affine": "93db5dad52e86286e6987c250d2c7f3d",
    "aires": "46a72485a95a064672b6c8c019843620",
    "calcul_mental": "af104f81d4176683ab8bc9d94bd4d13d",
    "cercle_trigonometrique": "30903b8ddf87e23121f5e6440140b1f5",
    "distributivite": "a4885d39d7ca8f8f11dd43e7338f1a79",
    "double_distributivite": "09957566fd4e4af107c9c0bbb34609b2",
    "ecr_sc": "ce02c517dfceaf5abd54f8bb136a679e",
    "espace": "af5adcbb383b847e61114b676657d2f2",
    "exo_aire_diques": "1379db789e7a574337062e5a15e0d354",
    "exo_comptable": "4eb9623b6140e33f79672d4a7a304af8",
    "exo_conversion_2d": "c49c541d11687917d87d33e019c2dabc",
    "exo_conversion_3d": "331b60c463aac19841c003cf334c718a",
    "exo_echelles": "4a78f519e4e46d20cb2acde9180677da",
    "exo_factorisation_degre2": "5be3e45d36e9dbcc9e77b0831c119a9a",
    "exo_factorisation_degre3": "7064550f77c68221fe255c8f592f5003",
    "exo_puissances": "0d6720a55a2869dc2e441195fd6b2ee0",
    "exo_pythagore": "617b3829b5d030acea79a2f78bd868b5",
    "exo_quadrilatere": "ca6099478b3baeb918f2f701f9e4ecd0",
    "exo_racines_degre2": "5a176d12f2776d05dd6c6e4358776a98",
    "exo_reciproque_pythagore": "bb1793be8a7cb6e0a6c29dc5d24320d2",
    "exo_tableau_de_signe": "e0dcd10c5d76327c8062c8bcb0618c5e",
    "exo_thales": "b2ae9b326286c3e679c54d6ab75f4567",
    "exo_triangle": "ef79b8c3d5bf33576d6b2b699fe8bd4e",
    "exo_triangle_cercle": "3898b83ba7ead1495d5165ac9578572a",
    "exo_trigo": "ad14161287c4c5e63e08e9b5001ec978",
    "exo_variation": "70c4eb2819ca2305d786d8236c2eb93e",
    "exo_variation_lim": "6ccb7efdae5d14a5f176d3795a5668fa",
    "factorisation": "fe5512f5bde24f9115c0ec1eb5240581",
    "fractions_egales": "b2588be496fcc4d3f323a4e5da553def",
    "id_rem": "7ba01959bc9124b83c773a1603fb724e",
    "notion_fonction": "58843c2a6706fcfb1ad8b10f539bda6e",
    "priorites": "10886b5f404064e47c59c3fc11851313",
    "produits_fractions": "be55407ad14953bd6946e173b8851f6e",
    "reduire": "4e6fefaacf1e0ecbfd3831cbf6001f6d",
    "relatifs": "99073d16b412d2d3733c22c03bf064c5",
    "reperage": "5267a896138d1917200a6c6cf957b548",
    "sommes_fractions": "cd0aa073d520b533b094473a407509c8",
    "sommes_fractions_positives": "08024051a08626c764e2d1b433a23212",
    "soustraction": "cb5ba3e1829129bd81c00c4a9da51d89",
    "statistiques": "a151b49b6d7062acb377a57ecb663da4",
    "symetrie": "7122c83bf59edde109efdc794ef77013",
    "tex_equations": "1888b071e42897a7134d11ea102f7d0e",
    "tex_fractions": "0576dea395b5ebcdbc85f381f2623454",
    "tex_pgcd": "1e9d4321abb62ab874d38ecce82f42c1",
    "tex_proba": "b684d520b03297617afb4b7e8dc5a340",
    "tex_proprietes": "6be81a1bbdd036519ff76eb283b267e8",
    "tex_proprietes_neg": "987c655d1fae819d0d17dea2db4628bf",
    "tex_puissances": "8722b063c1888e1d5ce3a645f7977898",
    "tex_racines": "db6ebd252ffbd2c0df15ddbbe23db460",
    "tex_reciproque_thales": "facb049cb2b21d9758fcc7f8f6bd65a0",
    "tex_systemes": "485159a663ee874f7f87b6632b2fba30",
    "tex_thales": "16fe87492d20fe0d65fc9908152934db",
    "tex_trigo": "ed4cd6f1837e2977ab95979af31639ff",
    "tex_units": "08eecd8f2a44ade15520202a30fe1b48",
    "vecteurs_add": "7e627efbd30f59a37e34e77087806c75"
}